Capítulo 3 Datos y programación | Estadística aplicada con R
…
La función head() mostrará las primeras n observaciones del marco de datos. La función head() era más útil antes que tibbles. Observe que mpg ya es un tibble, por lo que la salida de head() indica que solo hay 10 observaciones. Tenga en cuenta que esto se aplica a head (mpg, n = 10) y no a mpg en sí. También tenga en cuenta que tibbles imprime un número limitado de filas y columnas de forma predeterminada. La última línea de la salida impresa indica qué filas y columnas se omitieron.

mpg

## # A tibble: 234 x 11
##    manufacturer model    displ  year   cyl trans   drv     cty   hwy fl    class
##    <chr>        <chr>    <dbl> <int> <int> <chr>   <chr> <int> <int> <chr> <chr>
##  1 audi         a4         1.8  1999     4 auto(l~ f        18    29 p     comp~
##  2 audi         a4         1.8  1999     4 manual~ f        21    29 p     comp~
##  3 audi         a4         2    2008     4 manual~ f        20    31 p     comp~
##  4 audi         a4         2    2008     4 auto(a~ f        21    30 p     comp~
##  5 audi         a4         2.8  1999     6 auto(l~ f        16    26 p     comp~
##  6 audi         a4         2.8  1999     6 manual~ f        18    26 p     comp~
##  7 audi         a4         3.1  2008     6 auto(a~ f        18    27 p     comp~
##  8 audi         a4 quat~   1.8  1999     4 manual~ 4        18    26 p     comp~
##  9 audi         a4 quat~   1.8  1999     4 auto(l~ 4        16    25 p     comp~
## 10 audi         a4 quat~   2    2008     4 manual~ 4        20    28 p     comp~
## # ... with 224 more rows
…
