Capítulo 17 Regresión logística | Estadística aplicada con R
…
## The following object is masked from 'package:ggplot2':
## 
##     alpha

data("spam")
tibble::as.tibble(spam)

## Warning: `as.tibble()` is deprecated as of tibble 2.0.0.
## Please use `as_tibble()` instead.
## The signature and semantics have changed, see `?as_tibble`.
## This warning is displayed once every 8 hours.
## Call `lifecycle::last_warnings()` to see where this warning was generated.

## # A tibble: 4,601 x 58
##     make address   all num3d   our  over remove internet order  mail receive
##    <dbl>   <dbl> <dbl> <dbl> <dbl> <dbl>  <dbl>    <dbl> <dbl> <dbl>   <dbl>
##  1  0       0.64  0.64     0  0.32  0      0        0     0     0       0   
##  2  0.21    0.28  0.5      0  0.14  0.28   0.21     0.07  0     0.94    0.21
##  3  0.06    0     0.71     0  1.23  0.19   0.19     0.12  0.64  0.25    0.38
##  4  0       0     0        0  0.63  0      0.31     0.63  0.31  0.63    0.31
##  5  0       0     0        0  0.63  0      0.31     0.63  0.31  0.63    0.31
##  6  0       0     0        0  1.85  0      0        1.85  0     0       0   
##  7  0       0     0        0  1.92  0      0        0     0     0.64    0.96
##  8  0       0     0        0  1.88  0      0        1.88  0     0       0   
##  9  0.15    0     0.46     0  0.61  0      0.3      0     0.92  0.76    0.76
## 10  0.06    0.12  0.77     0  0.19  0.32   0.38     0     0.06  0       0   
## # ... with 4,591 more rows, and 47 more variables: will <dbl>, people <dbl>,
## #   report <dbl>, addresses <dbl>, free <dbl>, business <dbl>, email <dbl>,
## #   you <dbl>, credit <dbl>, your <dbl>, font <dbl>, num000 <dbl>, money <dbl>,
## #   hp <dbl>, hpl <dbl>, george <dbl>, num650 <dbl>, lab <dbl>, labs <dbl>,
## #   telnet <dbl>, num857 <dbl>, data <dbl>, num415 <dbl>, num85 <dbl>,
## #   technology <dbl>, num1999 <dbl>, parts <dbl>, pm <dbl>, direct <dbl>,
## #   cs <dbl>, meeting <dbl>, original <dbl>, project <dbl>, re <dbl>,
## #   edu <dbl>, table <dbl>, conference <dbl>, charSemicolon <dbl>,
## #   charRoundbracket <dbl>, charSquarebracket <dbl>, charExclamation <dbl>,
…
